<svg width="1500" height="705" viewBox="0 0 1500 705" fill="none" xmlns="http://www.w3.org/2000/svg">
<rect y="7" width="1500" height="698" fill="url(#paint0_linear)"/>
<path d="M1080.54 57C1076.39 57.2302 1072.3 58.9306 1069.13 62.1025C1062.29 68.9421 1062.29 80.0307 1069.13 86.8703C1072.55 90.2899 1077.03 92 1081.51 92C1086 92 1090.48 90.2899 1093.9 86.8703C1097.07 83.6986 1098.77 79.6125 1099 75.4608L1080.54 57ZM1076.6 80.3377H1073.13L1076.81 74.2095L1078.5 77.0207L1076.6 80.3377ZM1078.28 80.3377L1084.11 70.1442L1089.93 80.3377H1078.28ZM1095.27 73.7924C1094.15 73.5985 1093.05 73.2845 1091.98 72.8529C1089.99 72.0455 1088.21 70.8593 1086.67 69.3266C1085.03 67.6823 1083.79 65.7538 1082.98 63.5945C1082.63 62.6589 1082.38 61.703 1082.21 60.7315L1095.27 73.7924ZM1096.22 80.9466C1095.42 82.7705 1094.29 84.4164 1092.87 85.8386C1091.33 87.3713 1089.55 88.5579 1087.56 89.365C1085.63 90.1452 1083.6 90.5404 1081.51 90.5404C1079.43 90.5404 1077.4 90.1452 1075.47 89.365C1073.48 88.5579 1071.69 87.3713 1070.16 85.8386C1068.63 84.3053 1067.44 82.5189 1066.64 80.5284C1065.85 78.6047 1065.46 76.5721 1065.46 74.4866C1065.46 72.4005 1065.85 70.368 1066.64 68.4443C1067.44 66.4538 1068.63 64.6674 1070.16 63.1341C1071.58 61.712 1073.23 60.5851 1075.05 59.7846C1076.62 59.0961 1078.27 58.6673 1079.98 58.5055L1080.55 59.0716C1080.74 62.2092 1081.78 65.3046 1083.66 67.9909L1079.33 75.5681L1076.81 71.3725L1070.55 81.7974H1075.77H1083.06H1092.45L1086.23 70.9192C1089.28 73.7005 1093.07 75.2114 1096.93 75.4522L1097.5 76.0194C1097.33 77.7252 1096.9 79.3797 1096.22 80.9466Z" fill="url(#paint1_linear)" style="mix-blend-mode:multiply"/>
<path d="M1230.88 50L1222.33 60.0085L1221.55 60.9205L1213 70.929L1231.31 86.569L1239.86 76.5606L1240.64 75.6485L1249.19 65.6401L1230.88 50ZM1231.18 84.9496L1214.62 70.8016L1222.42 61.6662L1238.99 75.8143L1231.18 84.9496ZM1223.2 60.7542L1231 51.6188L1247.57 65.7669L1239.76 74.9022L1223.2 60.7541L1223.2 60.7542Z" fill="white"/>
<path d="M1233.02 60.0337L1233.4 57.7604L1227.97 59.5836L1229.84 61.1798L1232.45 63.4148L1235.81 66.2858L1237.3 58.4992L1233.02 60.0337ZM1230.25 60.0268L1231.95 59.4533L1231.78 60.4814L1231.08 60.7316L1230.25 60.0268ZM1232.08 61.5897L1235.79 60.2576L1235.06 64.1296L1232.08 61.5897Z" fill="white"/>
<path d="M1234.64 66.7856L1227.66 60.8263C1227.42 60.6223 1227.06 60.651 1226.85 60.8924C1226.65 61.1306 1226.68 61.4954 1226.91 61.6994L1233.89 67.6587C1234.13 67.8649 1234.49 67.833 1234.7 67.5947C1234.9 67.3533 1234.88 66.9918 1234.64 66.7856Z" fill="white"/>
<path d="M1219.09 70.8556C1218.85 70.6516 1218.49 70.6774 1218.29 70.9188C1218.08 71.1602 1218.11 71.5218 1218.35 71.7258C1218.59 71.932 1218.95 71.9065 1219.16 71.6651C1219.37 71.4236 1219.34 71.0618 1219.09 70.8556Z" fill="white"/>
<path d="M1220.84 72.3445C1220.6 72.141 1220.24 72.1668 1220.03 72.4082C1219.82 72.6496 1219.86 73.0112 1220.09 73.2147C1220.34 73.4209 1220.7 73.3954 1220.9 73.154C1221.11 72.9125 1221.08 72.5507 1220.84 72.3445Z" fill="white"/>
<path d="M1222.58 73.8362C1222.34 73.63 1221.98 73.6558 1221.77 73.8972C1221.57 74.1386 1221.6 74.5002 1221.84 74.7064C1222.08 74.9099 1222.44 74.8844 1222.65 74.6429C1222.85 74.4015 1222.82 74.0397 1222.58 73.8362Z" fill="white"/>
<path d="M1224.33 75.3252C1224.09 75.119 1223.72 75.1448 1223.52 75.3862C1223.31 75.6276 1223.34 75.9892 1223.58 76.1954C1223.82 76.3983 1224.18 76.3729 1224.39 76.1314C1224.6 75.8899 1224.56 75.5281 1224.33 75.3252Z" fill="white"/>
<path d="M1226.07 76.8148C1225.83 76.6086 1225.47 76.6366 1225.26 76.878C1225.06 77.1194 1225.09 77.4788 1225.33 77.685C1225.57 77.8912 1225.93 77.8624 1226.13 77.621C1226.34 77.3795 1226.31 77.021 1226.07 76.8148Z" fill="white"/>
<path d="M1223.89 73.4412L1227.25 76.3122L1228.73 68.5286L1224.45 70.0633L1224.84 67.7869L1219.4 69.61L1221.27 71.2062L1223.89 73.4412L1223.89 73.4412ZM1226.49 74.159L1223.52 71.6191L1227.23 70.2873L1226.49 74.159ZM1221.69 70.0561L1223.39 69.483L1223.22 70.5079L1222.51 70.761L1221.69 70.0562L1221.69 70.0561Z" fill="white"/>
<path d="M1243.57 68.4234C1243.55 68.1084 1243.27 67.8717 1242.96 67.8964L1240.1 68.1244L1240.01 66.9804C1239.98 66.6654 1239.71 66.4286 1239.39 66.4534C1239.08 66.4782 1238.84 66.7522 1238.86 67.0704L1239 68.7832C1239.02 69.1003 1239.3 69.3349 1239.61 69.3101L1243.05 69.0404C1243.36 69.0156 1243.6 68.7384 1243.57 68.4234Z" fill="white"/>
<path d="M1230.49 78.7378C1230.52 79.055 1230.79 79.2924 1231.11 79.2647L1231.11 79.2669L1232.26 79.1747L1232.35 80.3187C1232.37 80.6337 1232.65 80.8704 1232.96 80.8457C1233.28 80.8209 1233.51 80.5465 1233.49 80.2287L1233.4 79.0876L1234.54 78.9976C1234.86 78.9728 1235.09 78.6956 1235.07 78.3809C1235.04 78.0659 1234.77 77.8291 1234.45 77.8539L1233.31 77.9436L1233.22 76.8022L1233.22 76.8C1233.19 76.485 1232.92 76.2504 1232.6 76.273C1232.29 76.2975 1232.05 76.5747 1232.07 76.8897L1232.16 78.0337L1231.02 78.1208C1230.7 78.1485 1230.47 78.4228 1230.49 78.7378Z" fill="white"/>
<path d="M1210.23 176.896L1210.92 175.156L1211.15 174.576L1211.39 173.996C1209.8 173.364 1209.03 171.548 1209.67 169.949C1210.31 168.35 1212.12 167.563 1213.7 168.196L1213.93 167.615L1214.16 167.035L1214.86 165.295L1213.5 155.339L1206.25 155.137L1206.01 159.076L1192.8 153.801L1186.31 170.042L1199.53 175.318L1196.99 178.339L1202.39 183.182L1210.23 176.896ZM1198.72 178.21L1200.48 176.12L1201.59 174.794L1200 174.157L1187.93 169.341L1193.48 155.419L1205.55 160.236L1207.15 160.872L1207.25 159.144L1207.42 156.418L1212.42 156.557L1213.59 165.144L1212.95 166.745C1211.09 166.581 1209.25 167.651 1208.52 169.49C1207.79 171.329 1208.38 173.366 1209.84 174.528L1209.2 176.129L1202.44 181.551L1198.72 178.21Z" fill="url(#paint2_linear)" style="mix-blend-mode:multiply"/>
<path d="M1200.6 165.26L1202.79 164.896L1199.47 160.497L1198.58 162.707L1197.35 165.8L1195.76 169.778L1203.3 168.688L1200.6 165.26ZM1199.8 163.005L1200.55 164.004L1199.72 164.143L1199.47 163.829L1199.8 163.005L1199.8 163.005ZM1198.94 165.165L1200.99 167.764L1197.71 168.238L1198.94 165.165Z" fill="url(#paint3_linear)" style="mix-blend-mode:multiply"/>
<path d="M967 294.05L958.273 285L964.887 278.141C966.205 276.775 966.205 274.559 964.887 273.192C964.227 272.508 963.364 272.166 962.5 272.166C961.637 272.166 960.772 272.508 960.113 273.192L953.5 280.05L944.773 271L940 275.95L948.727 285L941.125 292.884V297.834H945.898L953.5 289.95L962.227 299L967 294.05ZM957.477 284.175L956.288 282.941L961.31 277.733L962.5 278.966L957.477 284.175ZM960.909 274.016C961.334 273.576 961.899 273.333 962.5 273.333C963.101 273.333 963.666 273.576 964.091 274.016C964.968 274.926 964.968 276.407 964.091 277.316L963.295 278.141L960.113 274.841L960.909 274.016ZM959.318 275.666L960.515 276.908L955.492 282.116L954.295 280.875L959.318 275.666ZM944.773 272.65L946.341 274.275L945.545 275.1C945.325 275.328 945.325 275.698 945.545 275.925C945.765 276.153 946.121 276.153 946.341 275.925C946.341 275.925 946.341 275.925 946.341 275.924L947.136 275.1L948.727 276.75L947.932 277.575C947.712 277.803 947.712 278.173 947.932 278.4C948.151 278.628 948.508 278.628 948.727 278.4C948.727 278.4 948.727 278.4 948.727 278.4L949.523 277.575L951.114 279.225L950.319 280.05C950.319 280.05 950.318 280.05 950.318 280.05C950.099 280.278 950.099 280.647 950.318 280.875C950.538 281.103 950.894 281.103 951.114 280.875V280.875L951.909 280.05L953.5 281.7L952.705 282.525C952.485 282.753 952.485 283.122 952.705 283.35C952.924 283.578 953.28 283.578 953.5 283.35L954.295 282.525L955.886 284.175L955.091 285C954.871 285.228 954.871 285.597 955.091 285.825C955.31 286.053 955.667 286.053 955.886 285.825C955.887 285.825 955.887 285.825 955.887 285.825L956.682 285L958.273 286.65L957.477 287.475V287.475C957.258 287.703 957.258 288.072 957.477 288.3C957.697 288.528 958.053 288.528 958.273 288.3L959.068 287.475L960.66 289.125L959.864 289.95C959.644 290.178 959.644 290.547 959.864 290.775C960.084 291.002 960.44 291.003 960.66 290.775C960.66 290.775 960.66 290.775 960.66 290.774L961.455 289.95L963.046 291.6L962.251 292.424L962.251 292.425C962.031 292.652 962.031 293.022 962.251 293.25C962.471 293.477 962.827 293.477 963.046 293.25L963.842 292.425L965.409 294.05L962.227 297.35L941.591 275.95L944.773 272.65ZM942.249 296.667V295.7L943.182 296.667H942.249ZM945.432 296.667H944.772L942.249 294.05V293.367L949.523 285.825L950.719 287.066L945.106 292.887C944.886 293.115 944.886 293.485 945.106 293.712C945.325 293.94 945.681 293.94 945.901 293.712L951.515 287.891L952.705 289.125L945.432 296.667Z" fill="white"/>
<path d="M1163 35.0503L1154.27 26L1160.89 19.1414C1162.2 17.7747 1162.2 15.5585 1160.89 14.1918C1160.23 13.5082 1159.36 13.1664 1158.5 13.1664C1157.64 13.1664 1156.77 13.5082 1156.11 14.1918L1149.5 21.0503L1140.77 12L1136 16.9497L1144.73 26L1137.12 33.8835V38.8336H1141.9L1149.5 30.9497L1158.23 40L1163 35.0503ZM1153.48 25.175L1152.29 23.9411L1157.31 18.7326L1158.5 19.9664L1153.48 25.175ZM1156.91 15.0163C1157.33 14.5758 1157.9 14.3332 1158.5 14.3332C1159.1 14.3332 1159.67 14.5759 1160.09 15.0163C1160.97 15.9264 1160.97 17.4068 1160.09 18.3164L1159.3 19.1414L1156.11 15.8414L1156.91 15.0163ZM1155.32 16.6664L1156.51 17.9075L1151.49 23.1161L1150.3 21.8753L1155.32 16.6664ZM1140.77 13.65L1142.34 15.2753L1141.54 16.1003C1141.33 16.328 1141.33 16.6976 1141.54 16.9253C1141.76 17.153 1142.12 17.153 1142.34 16.9253C1142.34 16.9253 1142.34 16.9249 1142.34 16.9244L1143.14 16.1003L1144.73 17.7503L1143.93 18.5754C1143.71 18.8031 1143.71 19.1726 1143.93 19.4004C1144.15 19.6281 1144.51 19.6281 1144.73 19.4004C1144.73 19.3999 1144.73 19.3999 1144.73 19.3999L1145.52 18.5754L1147.11 20.2254L1146.32 21.0495C1146.32 21.0495 1146.32 21.05 1146.32 21.0504C1146.1 21.2781 1146.1 21.6473 1146.32 21.875C1146.54 22.1031 1146.89 22.1031 1147.11 21.875V21.8754L1147.91 21.0504L1149.5 22.6999L1148.7 23.525C1148.48 23.7531 1148.48 24.1223 1148.7 24.35C1148.92 24.5777 1149.28 24.5777 1149.5 24.35L1150.3 23.525L1151.89 25.175L1151.09 26C1150.87 26.2277 1150.87 26.5973 1151.09 26.825C1151.31 27.0527 1151.67 27.0527 1151.89 26.825C1151.89 26.8246 1151.89 26.8246 1151.89 26.8246L1152.68 26L1154.27 27.65L1153.48 28.4746V28.475C1153.26 28.7028 1153.26 29.0719 1153.48 29.3001C1153.7 29.5278 1154.05 29.5278 1154.27 29.3001L1155.07 28.475L1156.66 30.1251L1155.86 30.9497C1155.64 31.1778 1155.64 31.547 1155.86 31.7747C1156.08 32.0024 1156.44 32.0028 1156.66 31.7747C1156.66 31.7747 1156.66 31.7747 1156.66 31.7742L1157.45 30.9497L1159.05 32.5997L1158.25 33.4243L1158.25 33.4247C1158.03 33.6524 1158.03 34.022 1158.25 34.2497C1158.47 34.4774 1158.83 34.4774 1159.05 34.2497L1159.84 33.4247L1161.41 35.0504L1158.23 38.35L1137.59 16.9497L1140.77 13.65ZM1138.25 37.6668V36.7004L1139.18 37.6668H1138.25ZM1141.43 37.6668H1140.77L1138.25 35.0503V34.3672L1145.52 26.825L1146.72 28.0661L1141.11 33.8874C1140.89 34.1151 1140.89 34.4847 1141.11 34.7124C1141.33 34.9401 1141.68 34.9401 1141.9 34.7124L1147.52 28.8912L1148.7 30.1247L1141.43 37.6668Z" fill="url(#paint4_linear)" style="mix-blend-mode:multiply"/>
<path d="M1157.83 220.588L1152.81 225.448C1152.58 225.671 1152.57 226.04 1152.8 226.27C1153.02 226.502 1153.39 226.508 1153.62 226.284L1158.64 221.425C1158.87 221.201 1158.87 220.833 1158.65 220.601C1158.43 220.371 1158.06 220.364 1157.83 220.588Z" fill="url(#paint5_linear)" style="mix-blend-mode:multiply"/>
<path d="M1152 224.611L1153.67 222.991C1153.9 222.767 1153.91 222.399 1153.69 222.168C1153.46 221.937 1153.09 221.932 1152.86 222.156L1151.19 223.775C1150.96 223.999 1150.95 224.367 1151.18 224.598C1151.4 224.829 1151.77 224.834 1152 224.611Z" fill="url(#paint6_linear)" style="mix-blend-mode:multiply"/>
<path d="M1164.08 212.47L1162.06 211.933L1163.24 216.97L1164.83 215.427L1167.06 213.268L1169.93 210.491L1163.06 208.499L1164.08 212.47ZM1163.9 214.704L1163.64 213.558L1164.4 213.763L1164.5 214.128L1163.9 214.704ZM1165.46 213.196L1164.69 210.185L1167.68 211.05L1165.46 213.196Z" fill="url(#paint7_linear)" style="mix-blend-mode:multiply"/>
<path d="M1160.65 198.404L1141.42 217.032C1141.19 217.256 1141.18 217.625 1141.4 217.856L1152.74 229.563C1152.97 229.794 1153.34 229.799 1153.57 229.576L1172.8 210.948C1173.03 210.725 1173.04 210.356 1172.81 210.126L1161.47 198.418C1161.25 198.187 1160.88 198.181 1160.65 198.404ZM1160.22 200.441L1156.73 213.302C1156.7 213.404 1156.54 213.56 1156.43 213.585L1143.46 216.672L1160.22 200.441ZM1153.17 228.334L1143.12 217.951L1156.7 214.717C1156.96 214.656 1157.21 214.506 1157.42 214.308C1157.62 214.11 1157.78 213.863 1157.85 213.608L1161.51 200.131L1171.57 210.516L1153.17 228.334Z" fill="url(#paint8_linear)" style="mix-blend-mode:multiply"/>
<path d="M1118 12.7272C1118 5.69796 1112.33 0 1105.33 0C1103.03 0 1100.86 0.619865 1099 1.70299C1097.14 0.61994 1094.97 0 1092.67 0C1085.67 0 1080 5.69796 1080 12.7272C1080 17.4761 1082.59 21.6167 1086.42 23.8039C1087.18 30.1107 1092.52 35 1099 35C1105.48 35 1110.82 30.1107 1111.58 23.8039C1115.41 21.6167 1118 17.4761 1118 12.7272ZM1088.16 24.626C1089.56 25.1608 1091.08 25.4544 1092.67 25.4544C1094.97 25.4544 1097.14 24.8346 1099 23.7514C1100.86 24.8345 1103.03 25.4544 1105.33 25.4544C1106.92 25.4544 1108.44 25.1608 1109.84 24.626C1109.69 25.3024 1109.48 25.9642 1109.21 26.6068C1108.66 27.9329 1107.86 29.1243 1106.84 30.1474C1105.82 31.1705 1104.63 31.9739 1103.31 32.535C1101.95 33.1153 1100.5 33.4095 1099 33.4095C1097.5 33.4095 1096.05 33.1153 1094.69 32.535C1093.37 31.974 1092.18 31.1705 1091.16 30.1474C1090.14 29.1243 1089.34 27.9329 1088.79 26.6068C1088.52 25.9642 1088.31 25.3024 1088.16 24.626ZM1110.07 22.7977C1109.93 22.8642 1109.79 22.9282 1109.65 22.9894C1108.28 23.5696 1106.83 23.8639 1105.33 23.8639C1103.84 23.8639 1102.39 23.5697 1101.02 22.9894C1100.84 22.9119 1100.66 22.8297 1100.48 22.7435C1103.34 20.4899 1105.21 17.0298 1105.33 13.1269C1105.86 13.5026 1106.37 13.9268 1106.84 14.3981C1107.86 15.4212 1108.66 16.6126 1109.21 17.9381C1109.79 19.3102 1110.08 20.7685 1110.08 22.2728C1110.08 22.4487 1110.08 22.6235 1110.07 22.7977ZM1103.74 12.2023C1103.75 12.3765 1103.75 12.5513 1103.75 12.7272C1103.75 14.2315 1103.46 15.6898 1102.88 17.0613C1102.32 18.3873 1101.52 19.5788 1100.5 20.6019C1100.04 21.0715 1099.53 21.4938 1099 21.8679C1098.47 21.4938 1097.96 21.0715 1097.5 20.6019C1096.48 19.5788 1095.68 18.3874 1095.12 17.0613C1094.54 15.6898 1094.25 14.2315 1094.25 12.7272C1094.25 12.5513 1094.25 12.3765 1094.26 12.2023C1094.4 12.1358 1094.54 12.0718 1094.69 12.0106C1096.05 11.4304 1097.5 11.1361 1099 11.1361C1100.5 11.1361 1101.95 11.4303 1103.31 12.0106C1103.46 12.0718 1103.6 12.1358 1103.74 12.2023ZM1099 9.54556C1097.41 9.54556 1095.9 9.83924 1094.5 10.374C1094.64 9.69762 1094.85 9.03577 1095.12 8.39316C1095.68 7.06715 1096.48 5.87567 1097.5 4.85258C1097.96 4.38298 1098.47 3.96059 1099 3.58652C1099.53 3.96059 1100.04 4.38298 1100.5 4.85258C1101.52 5.87567 1102.32 7.06707 1102.88 8.39316C1103.15 9.03577 1103.36 9.69762 1103.5 10.374C1102.1 9.83916 1100.59 9.54556 1099 9.54556ZM1092.67 13.1269C1092.79 17.0298 1094.66 20.4899 1097.52 22.7435C1097.34 22.8297 1097.16 22.9119 1096.98 22.9894C1095.61 23.5696 1094.16 23.8639 1092.67 23.8639C1091.17 23.8639 1089.72 23.5697 1088.35 22.9894C1088.21 22.9282 1088.07 22.8641 1087.93 22.7977C1087.92 22.6235 1087.92 22.4487 1087.92 22.2728C1087.92 20.7685 1088.21 19.3102 1088.79 17.9387C1089.34 16.6127 1090.14 15.4212 1091.16 14.3981C1091.63 13.9268 1092.14 13.5026 1092.67 13.1269ZM1097.52 2.71094C1094.94 4.74429 1093.17 7.75987 1092.76 11.1961C1089.03 13.3215 1086.48 17.2926 1086.34 21.8731C1085.8 21.4974 1085.3 21.0732 1084.83 20.6019C1083.81 19.5788 1083.01 18.3874 1082.45 17.0613C1081.88 15.6898 1081.58 14.2315 1081.58 12.7272C1081.58 11.2229 1081.88 9.76459 1082.45 8.39316C1083.01 7.06715 1083.81 5.87567 1084.83 4.85258C1085.85 3.82949 1087.03 3.02609 1088.35 2.46499C1089.72 1.88473 1091.17 1.59045 1092.67 1.59045C1094.16 1.59045 1095.61 1.88465 1096.98 2.46499C1097.16 2.54255 1097.34 2.62466 1097.52 2.71094ZM1115.55 8.39316C1116.12 9.76466 1116.42 11.2229 1116.42 12.7272C1116.42 14.2315 1116.12 15.6898 1115.55 17.0613C1114.99 18.3873 1114.19 19.5788 1113.17 20.6019C1112.7 21.0732 1112.2 21.4974 1111.66 21.8731C1111.52 17.2926 1108.97 13.3215 1105.24 11.1961C1104.83 7.75987 1103.06 4.74422 1100.48 2.71094C1100.66 2.62473 1100.84 2.54255 1101.02 2.46507C1102.39 1.8848 1103.84 1.59053 1105.33 1.59053C1106.83 1.59053 1108.28 1.88473 1109.65 2.46507C1110.97 3.02609 1112.15 3.82956 1113.17 4.85265C1114.19 5.87567 1114.99 7.06715 1115.55 8.39316Z" fill="url(#paint9_linear)" style="mix-blend-mode:multiply"/>
<path d="M1008.05 40.9068L1015.39 45.9599L1018.54 48.1256L1025.89 53.1792L1044.26 28.7157L1024.33 14.9999L1008.05 40.9068ZM1009.78 40.5494L1011.13 38.3911L1017.56 42.8118L1016.12 44.9104L1009.78 40.5494ZM1017.17 45.6326L1020.05 41.4354L1021.1 42.1571L1018.22 46.3544L1017.17 45.6326ZM1019.26 47.0761L1020.71 44.9775L1027.13 49.3987L1025.6 51.437L1019.26 47.0761ZM1042.45 29.0132L1027.9 48.3793L1021.43 43.928L1022.87 41.8294C1023.07 41.5396 1023 41.1435 1022.71 40.9442C1022.42 40.7449 1022.02 40.8179 1021.82 41.1077C1022.02 40.8179 1021.95 40.4213 1021.66 40.222C1021.37 40.0226 1020.97 40.0962 1020.78 40.3859C1020.97 40.0962 1020.9 39.6996 1020.61 39.5003C1020.32 39.3009 1019.92 39.3739 1019.73 39.6637L1018.28 41.7623L1011.81 37.3114L1024.7 16.8022L1042.45 29.0132Z" fill="white"/>
<path d="M1023.3 34.9042L1028.85 32.2275L1028.66 35.3521L1035.74 32.1245L1032.99 30.2338L1029.14 27.5869L1024.19 24.1835L1023.3 34.9042ZM1033.16 31.8991L1030.06 33.3123L1030.17 31.5933L1031.67 30.8713L1033.16 31.8991L1033.16 31.8991ZM1030.46 30.0396L1024.75 32.789L1025.28 26.4775L1030.46 30.0396Z" fill="white"/>
<g clip-path="url(#clip0)">
<path d="M1269.28 151.636C1269.28 149.387 1267.46 147.563 1265.21 147.563C1264.91 147.563 1264.62 147.596 1264.34 147.658L1261.64 144.959L1268.96 137.633C1270.23 136.364 1270.23 134.307 1268.96 133.038C1268.33 132.404 1267.5 132.086 1266.66 132.086C1265.83 132.086 1265 132.404 1264.37 133.038L1257.04 140.364L1248.7 132.02C1248.27 131.597 1247.72 131.386 1247.17 131.386C1246.61 131.386 1246.06 131.597 1245.63 132.02C1244.79 132.866 1244.79 134.237 1245.63 135.084L1253.98 143.427L1246.08 151.319V155.914H1250.68L1258.57 148.022L1261.25 150.698C1261.18 150.999 1261.14 151.313 1261.14 151.636C1261.14 156.249 1267.94 156.614 1270.19 156.614C1272.44 156.615 1269.28 153.886 1269.28 151.636ZM1266.66 133.169C1267.24 133.169 1267.79 133.395 1268.2 133.804C1269.04 134.648 1269.04 136.023 1268.2 136.867L1267.43 137.633L1264.37 134.569L1265.13 133.804C1265.54 133.395 1266.08 133.169 1266.66 133.169ZM1246.4 134.317C1245.98 133.895 1245.98 133.208 1246.4 132.786C1246.6 132.581 1246.88 132.469 1247.17 132.469C1247.45 132.469 1247.73 132.581 1247.93 132.786L1256.27 141.129L1254.74 142.661L1246.4 134.317ZM1247.17 154.831V153.934L1248.07 154.831H1247.17ZM1250.23 154.831H1249.6L1247.17 152.402V151.768L1263.6 135.335L1264.75 136.488L1249.92 151.322C1249.71 151.534 1249.71 151.877 1249.92 152.088C1250.13 152.3 1250.47 152.3 1250.68 152.088L1265.52 137.253L1266.66 138.399L1250.23 154.831ZM1259.34 147.256L1260.87 145.725L1263.23 148.08C1262.58 148.439 1262.05 148.966 1261.68 149.601L1259.34 147.256ZM1265.17 154.829C1264.22 154.511 1263.5 154.098 1263.01 153.6C1262.48 153.063 1262.22 152.421 1262.22 151.636C1262.22 150.838 1262.53 150.087 1263.1 149.522C1263.66 148.958 1264.41 148.647 1265.21 148.647C1266.86 148.647 1268.2 149.988 1268.2 151.636C1268.2 152.869 1268.86 154.072 1269.39 155.038C1269.47 155.182 1269.56 155.356 1269.65 155.524C1268.48 155.494 1266.72 155.351 1265.17 154.829Z" fill="url(#paint10_linear)" style="mix-blend-mode:multiply"/>
</g>
<g clip-path="url(#clip1)">
<path d="M1179.69 113.447L1227.58 127.017L1230.49 116.733L1182.6 103.162L1179.69 113.447ZM1226.35 124.819L1222.97 123.861L1223.46 122.147C1223.59 121.673 1223.32 121.181 1222.85 121.046C1222.37 120.913 1221.88 121.188 1221.75 121.661C1221.75 121.662 1221.75 121.662 1221.75 121.662L1221.26 123.375L1217.83 122.404L1218.32 120.69C1218.45 120.216 1218.18 119.724 1217.7 119.59C1217.23 119.456 1216.74 119.73 1216.6 120.204L1216.12 121.919L1212.69 120.947L1213.17 119.233L1213.18 119.232C1213.31 118.76 1213.03 118.267 1212.56 118.133C1212.09 117.999 1211.6 118.274 1211.46 118.747C1211.46 118.748 1211.46 118.748 1211.46 118.748L1210.98 120.461L1207.55 119.489L1208.03 117.776C1208.17 117.302 1207.89 116.81 1207.42 116.675C1206.95 116.542 1206.45 116.817 1206.32 117.29L1205.83 119.004L1202.4 118.033L1202.89 116.319C1203.02 115.845 1202.75 115.353 1202.28 115.219C1201.8 115.084 1201.31 115.359 1201.18 115.833L1200.69 117.548L1197.26 116.576L1197.75 114.861C1197.88 114.389 1197.61 113.895 1197.13 113.762C1196.66 113.628 1196.17 113.902 1196.03 114.376C1196.03 114.376 1196.03 114.376 1196.03 114.376L1195.55 116.09L1192.12 115.118L1192.61 113.405C1192.74 112.931 1192.46 112.439 1191.99 112.304C1191.52 112.171 1191.03 112.446 1190.89 112.918C1190.89 112.918 1190.89 112.918 1190.89 112.92L1190.41 114.633L1186.98 113.662L1187.46 111.949C1187.46 111.948 1187.46 111.948 1187.46 111.948C1187.6 111.474 1187.32 110.982 1186.85 110.848C1186.38 110.713 1185.88 110.988 1185.75 111.462L1185.26 113.175L1181.89 112.219L1183.83 105.362L1228.29 117.962L1226.35 124.819Z" fill="url(#paint11_linear)" style="mix-blend-mode:multiply"/>
</g>
<path d="M1218.24 28.7833L1204.2 11.378C1204.03 11.1696 1203.72 11.1366 1203.51 11.3053L1191.4 21.0771C1191.2 21.2457 1191.16 21.5519 1191.33 21.7603L1196.4 28.0398L1193.76 29.4192L1193.64 29.2679C1193.47 29.0595 1193.17 29.0268 1192.96 29.1954C1192.75 29.3641 1192.72 29.6703 1192.89 29.8787L1197.77 35.9332C1197.94 36.1416 1198.25 36.1746 1198.45 36.0059C1198.66 35.8373 1198.7 35.5308 1198.53 35.3224L1198.41 35.1706L1200.31 32.885L1205.38 39.1656C1205.55 39.374 1205.85 39.407 1206.06 39.2383L1218.17 29.4666C1218.38 29.2979 1218.41 28.9917 1218.24 28.7833ZM1194.39 30.1913L1197.02 28.8138L1199.69 32.1153L1197.78 34.3991L1194.39 30.1913L1194.39 30.1913ZM1217.18 29.015L1207.34 36.9543L1193.91 20.3072L1203.74 12.3679L1217.18 29.015ZM1199.11 29.8524L1192.39 21.5289L1193.15 20.9181L1199.87 29.2416L1206.59 37.5651L1205.83 38.1759L1199.11 29.8524Z" fill="url(#paint12_linear)" style="mix-blend-mode:multiply"/>
<path d="M1199.8 29.9251C1200 29.7564 1200.04 29.4507 1199.87 29.2418C1199.7 29.0329 1199.39 29.0004 1199.19 29.1691C1198.98 29.3377 1198.94 29.6437 1199.11 29.8526C1199.28 30.0615 1199.59 30.0937 1199.8 29.9251Z" fill="url(#paint13_linear)" style="mix-blend-mode:multiply"/>
<path d="M1203.15 14.7241L1212.31 26.0738C1212.31 26.0738 1212.31 26.0744 1212.31 26.0749C1212.48 26.2833 1212.78 26.3163 1212.99 26.1476C1213.2 25.979 1213.23 25.6725 1213.07 25.4641L1203.91 14.1133C1203.74 13.9038 1203.43 13.8711 1203.22 14.0397C1203.01 14.2084 1202.98 14.5146 1203.15 14.7241Z" fill="url(#paint14_linear)" style="mix-blend-mode:multiply"/>
<path d="M1201.64 15.946L1206.52 21.9989C1206.52 21.9994 1206.52 21.9994 1206.52 21.9994C1206.69 22.2084 1207 22.2408 1207.2 22.0721C1207.41 21.9035 1207.45 21.5978 1207.28 21.3889L1202.39 15.3354C1202.22 15.126 1201.92 15.093 1201.71 15.2616C1201.5 15.4303 1201.47 15.7365 1201.64 15.946Z" fill="url(#paint15_linear)" style="mix-blend-mode:multiply"/>
<path d="M1200.12 17.1677L1206.84 25.4907C1206.84 25.4913 1206.84 25.4913 1206.84 25.4913C1207.01 25.7002 1207.31 25.7326 1207.52 25.564C1207.73 25.3953 1207.76 25.0894 1207.59 24.8804L1200.88 16.5569C1200.71 16.3474 1200.4 16.3144 1200.19 16.4831C1199.98 16.6519 1199.95 16.9582 1200.12 17.1677Z" fill="url(#paint16_linear)" style="mix-blend-mode:multiply"/>
<path d="M1198.61 18.3888L1202.88 23.6851C1203.05 23.8946 1203.36 23.9275 1203.57 23.7589C1203.78 23.5903 1203.81 23.284 1203.64 23.0745L1199.36 17.778C1199.2 17.5685 1198.89 17.5357 1198.68 17.7044C1198.47 17.873 1198.44 18.1793 1198.61 18.3888Z" fill="url(#paint17_linear)" style="mix-blend-mode:multiply"/>
<path d="M1197.09 19.6104L1205.03 29.447L1205.03 29.4472C1205.2 29.6567 1205.51 29.6894 1205.72 29.5208C1205.93 29.3521 1205.96 29.0459 1205.79 28.8364L1197.85 18.9998C1197.68 18.7903 1197.38 18.7573 1197.17 18.926C1196.96 19.0946 1196.93 19.4009 1197.09 19.6104Z" fill="url(#paint18_linear)" style="mix-blend-mode:multiply"/>
<path d="M1195.58 20.832L1198.02 23.8582C1198.19 24.0676 1198.5 24.1006 1198.71 23.932C1198.92 23.7633 1198.95 23.4568 1198.78 23.2473L1196.34 20.2212C1196.17 20.0117 1195.86 19.9787 1195.65 20.1474C1195.44 20.3162 1195.41 20.6225 1195.58 20.832Z" fill="url(#paint19_linear)" style="mix-blend-mode:multiply"/>
<path d="M1128.71 153.114L1124.91 149.114L1120.59 162.123L1126.33 160.843L1134.36 159.052L1144.68 156.749L1131.92 142.733L1128.71 153.114ZM1123.45 159.54L1125.72 152.716L1128.07 155.194L1126.97 158.754L1123.45 159.54ZM1129.11 158.278L1132.75 146.469L1141.08 155.608L1129.11 158.278Z" fill="white"/>
<path d="M1138.29 128.08L1137.87 126.186C1137.75 125.664 1137.24 125.333 1136.73 125.447C1136.22 125.561 1135.9 126.077 1136.01 126.6L1136.44 128.493L1132.73 129.32L1132.31 127.427C1132.19 126.904 1131.68 126.573 1131.17 126.687C1130.66 126.801 1130.34 127.317 1130.45 127.84L1130.88 129.733L1127.17 130.56L1126.75 128.667C1126.63 128.144 1126.12 127.813 1125.61 127.927C1125.1 128.041 1124.78 128.557 1124.89 129.08L1125.31 130.973L1121.61 131.8L1121.19 129.907C1121.07 129.384 1120.56 129.053 1120.05 129.167C1119.54 129.282 1119.22 129.798 1119.33 130.32L1119.75 132.213L1116.05 133.04L1115.63 131.147C1115.51 130.624 1115 130.293 1114.49 130.407C1113.98 130.522 1113.65 131.038 1113.77 131.561L1114.19 133.454L1108.63 134.694L1117.92 176.339L1153.14 168.484L1143.85 126.839L1138.29 128.08ZM1150.87 167.043L1119.36 174.071L1110.9 136.134L1114.61 135.307L1115.01 137.121C1115.13 137.644 1115.64 137.975 1116.15 137.861C1116.66 137.747 1116.98 137.23 1116.87 136.708L1116.46 134.894L1120.17 134.067L1120.57 135.881C1120.69 136.403 1121.2 136.735 1121.71 136.621C1122.22 136.507 1122.54 135.99 1122.43 135.467L1122.02 133.654L1125.73 132.827L1126.13 134.641C1126.25 135.163 1126.76 135.495 1127.27 135.381C1127.78 135.266 1128.1 134.75 1127.99 134.227L1127.58 132.413L1131.29 131.587L1131.69 133.4C1131.81 133.923 1132.32 134.255 1132.83 134.14C1133.34 134.026 1133.66 133.51 1133.55 132.987L1133.14 131.173L1136.85 130.347L1137.25 132.16C1137.37 132.683 1137.88 133.015 1138.39 132.9C1138.9 132.786 1139.22 132.27 1139.11 131.747L1138.7 129.933L1142.41 129.106L1150.87 167.043Z" fill="white"/>
<path d="M1149.23 54.4347L1126.49 74.4399C1126.22 74.6801 1126.19 75.0962 1126.43 75.3691L1140.35 91.186C1140.59 91.459 1141.01 91.4852 1141.28 91.2451L1149.48 84.0273L1151.5 87.5134L1151.3 87.6874C1151.03 87.9275 1151 88.344 1151.24 88.617C1151.48 88.89 1151.9 88.9162 1152.17 88.676L1160.08 81.7175C1160.36 81.4773 1160.38 81.0619 1160.14 80.7889C1159.9 80.5159 1159.49 80.4887 1159.21 80.7288L1159.02 80.9028L1155.81 78.4589L1164.02 71.2399C1164.29 70.9997 1164.32 70.5842 1164.08 70.3113L1150.16 54.4944C1149.92 54.2214 1149.5 54.1945 1149.23 54.4347ZM1152.51 86.6266L1150.49 83.1451L1154.81 79.3479L1158.01 81.7896L1152.51 86.6267L1152.51 86.6266ZM1153.96 60.801L1150.99 63.4104L1146.64 58.4678L1149.61 55.8584L1153.96 60.801ZM1151.86 64.3991L1154.83 61.7897L1160.91 68.7093L1157.95 71.3186L1151.86 64.3991ZM1145.65 59.3374L1156.96 72.1882L1139.17 87.8443L1127.86 74.9935L1145.65 59.3374ZM1151.78 80.2545L1140.91 89.8217L1140.04 88.833L1150.91 79.2658L1161.78 69.698L1162.65 70.6866L1151.78 80.2545Z" fill="url(#paint20_linear)" style="mix-blend-mode:multiply"/>
<path d="M1151.84 79.3251C1151.6 79.0522 1151.18 79.0253 1150.91 79.2661C1150.64 79.5063 1150.61 79.9217 1150.85 80.1947C1151.09 80.4677 1151.51 80.4949 1151.78 80.2548C1152.05 80.014 1152.08 79.5981 1151.84 79.3251Z" fill="url(#paint21_linear)" style="mix-blend-mode:multiply"/>
<path d="M1145.14 75.5555L1148.53 72.5734L1140.88 69.9518L1141.81 74.4933L1139.57 73.7777L1140.62 79.5319L1142.5 77.8749L1145.14 75.5555ZM1142.63 71.9444L1145.96 73.0838L1143.34 75.3873L1142.63 71.9444ZM1141.5 77.0067L1141.26 75.6992L1142.11 75.9722L1142.2 76.3894L1141.5 77.0067Z" fill="url(#paint22_linear)" style="mix-blend-mode:multiply"/>
<path d="M1133.55 73.4909L1132.56 74.3605L1133.43 75.3492L1134.42 74.4796L1133.55 73.4909Z" fill="url(#paint23_linear)" style="mix-blend-mode:multiply"/>
<path d="M1138.99 68.7078L1138 69.5774L1138.87 70.5661L1139.86 69.6965L1138.99 68.7078Z" fill="url(#paint24_linear)" style="mix-blend-mode:multiply"/>
<path d="M1144.42 63.924L1143.44 64.7943L1144.31 65.7829L1145.29 64.9127L1144.42 63.924Z" fill="url(#paint25_linear)" style="mix-blend-mode:multiply"/>
<path d="M1147.9 67.8781L1146.92 68.7483L1147.78 69.7366L1148.77 68.8664L1147.9 67.8781Z" fill="url(#paint26_linear)" style="mix-blend-mode:multiply"/>
<path d="M1151.38 71.8321L1150.4 72.7023L1151.26 73.691L1152.25 72.8208L1151.38 71.8321Z" fill="url(#paint27_linear)" style="mix-blend-mode:multiply"/>
<path d="M1140.51 81.3995L1139.52 82.2691L1140.39 83.2578L1141.38 82.3882L1140.51 81.3995Z" fill="url(#paint28_linear)" style="mix-blend-mode:multiply"/>
<path d="M1137.03 77.4455L1136.04 78.315L1136.91 79.3033L1137.9 78.4338L1137.03 77.4455Z" fill="url(#paint29_linear)" style="mix-blend-mode:multiply"/>
<path d="M1145.95 76.6164L1144.96 77.486L1145.83 78.4746L1146.82 77.6051L1145.95 76.6164Z" fill="url(#paint30_linear)" style="mix-blend-mode:multiply"/>
<circle cx="1276.5" cy="94.5" r="10.5" stroke="url(#paint31_linear)" stroke-width="10" style="mix-blend-mode:multiply"/>
<path d="M1195 259.807V255.894H1189.05V249H1184.95V255.894H1179V259.807H1184.95V267H1189.05V259.807H1195Z" fill="white"/>
<path d="M1235.47 292C1235.47 290.494 1231.37 277.65 1247.38 282.17C1263.39 286.689 1268.32 279.157 1271.61 264.641C1274.89 250.125 1284.47 248.756 1292 249.029" stroke="url(#paint32_linear)" stroke-width="8" stroke-linecap="round" stroke-linejoin="round" style="mix-blend-mode:multiply"/>
<path d="M1279.2 44.7795C1278.67 45.0496 1274.89 48.7878 1273.62 42.3746C1272.35 35.9614 1268.82 35.5872 1263.14 37.0392C1257.45 38.4913 1255.26 35.3843 1254.01 32.7012" stroke="url(#paint33_linear)" stroke-width="8" stroke-linecap="round" stroke-linejoin="round" style="mix-blend-mode:multiply"/>
<circle cx="879" cy="369" r="8" stroke="white" stroke-width="10"/>
<path d="M984.088 68.4711L972.807 80.1773L960.962 88.3949L962.998 90.3567L961.527 91.8836C961.256 92.1647 961.264 92.6127 961.545 92.8836L979.868 110.541C980.149 110.812 980.597 110.803 980.868 110.522L1003.43 87.1096C1003.7 86.8285 1003.69 86.3809 1003.41 86.11L985.088 68.4526C984.807 68.1817 984.359 68.19 984.088 68.4711ZM963.185 88.5738L972.661 81.9994L989.926 98.6369L980.45 105.211L963.185 88.5738ZM980.34 109.033L963.035 92.3563L964.016 91.3378L980.304 107.033L986.226 102.925L980.34 109.033ZM1001.92 86.637L991.131 97.8348L973.826 81.1584L984.616 69.9606L1001.92 86.637Z" fill="url(#paint34_linear)" style="mix-blend-mode:multiply"/>
<path d="M979.749 77.049L976.806 80.1028L979.86 83.0458L982.802 79.9919L979.749 77.049ZM980.803 80.0292L979.822 81.047L978.804 80.0659L979.785 79.0482L980.803 80.0292Z" fill="url(#paint35_linear)" style="mix-blend-mode:multiply"/>
<path d="M983.672 72.9782L980.729 76.032L983.783 78.975L986.726 75.9211L983.672 72.9782ZM984.727 75.9577L983.746 76.9762L982.728 75.9951L983.709 74.9766L984.727 75.9577Z" fill="url(#paint36_linear)" style="mix-blend-mode:multiply"/>
<path d="M983.821 80.9724L980.878 84.0263L983.932 86.9692L986.875 83.9153L983.821 80.9724ZM984.876 83.9531L983.895 84.9708L982.877 83.9897L983.857 82.972L984.876 83.9531Z" fill="url(#paint37_linear)" style="mix-blend-mode:multiply"/>
<path d="M987.743 76.9016L984.8 79.9555L987.854 82.8984L990.797 79.8445L987.743 76.9016ZM988.799 79.8815L987.817 80.9L986.799 79.9189L987.781 78.9004L988.799 79.8815Z" fill="url(#paint38_linear)" style="mix-blend-mode:multiply"/>
<path d="M987.892 84.8966L984.949 87.9504L988.003 90.8933L990.946 87.8395L987.892 84.8966ZM988.946 87.8768L987.966 88.8945L986.948 87.9138L987.929 86.8961L988.946 87.8768Z" fill="url(#paint39_linear)" style="mix-blend-mode:multiply"/>
<path d="M991.816 80.8254L988.873 83.8793L991.927 86.8222L994.87 83.7683L991.816 80.8254ZM992.871 83.8049L991.89 84.8234L990.872 83.8427L991.853 82.8242L992.871 83.8049Z" fill="url(#paint40_linear)" style="mix-blend-mode:multiply"/>
<path d="M995.019 91.7636L991.965 88.8207L989.022 91.8746L992.076 94.8175L995.019 91.7636ZM991.02 91.8376L992.001 90.8199L993.019 91.801L992.038 92.8187L991.02 91.8376Z" fill="url(#paint41_linear)" style="mix-blend-mode:multiply"/>
<path d="M995.887 84.7496L992.944 87.8034L995.998 90.7463L998.941 87.6925L995.887 84.7496ZM996.942 87.7291L995.961 88.7475L994.943 87.7665L995.924 86.748L996.942 87.7291Z" fill="url(#paint42_linear)" style="mix-blend-mode:multiply"/>
<defs>
<linearGradient id="paint0_linear" x1="1480.5" y1="23.8803" x2="174.236" y2="851.266" gradientUnits="userSpaceOnUse">
<stop stop-color="#FFC000"/>
<stop offset="1" stop-color="#FF8A00"/>
</linearGradient>
<linearGradient id="paint1_linear" x1="1098.55" y1="57.8464" x2="1059.25" y2="69.428" gradientUnits="userSpaceOnUse">
<stop stop-color="#FFC000"/>
<stop offset="1" stop-color="#FF8A00"/>
</linearGradient>
<linearGradient id="paint2_linear" x1="1206.58" y1="184.433" x2="1207.85" y2="150.006" gradientUnits="userSpaceOnUse">
<stop stop-color="#FFC000"/>
<stop offset="1" stop-color="#FF8A00"/>
</linearGradient>
<linearGradient id="paint3_linear" x1="1201.79" y1="172.045" x2="1201.35" y2="160.919" gradientUnits="userSpaceOnUse">
<stop stop-color="#FFC000"/>
<stop offset="1" stop-color="#FF8A00"/>
</linearGradient>
<linearGradient id="paint4_linear" x1="1162.65" y1="12.6771" x2="1132.17" y2="21.341" gradientUnits="userSpaceOnUse">
<stop stop-color="#FFC000"/>
<stop offset="1" stop-color="#FF8A00"/>
</linearGradient>
<linearGradient id="paint5_linear" x1="1158.19" y1="220.277" x2="1159.55" y2="224.398" gradientUnits="userSpaceOnUse">
<stop stop-color="#FFC000"/>
<stop offset="1" stop-color="#FF8A00"/>
</linearGradient>
<linearGradient id="paint6_linear" x1="1153.27" y1="221.802" x2="1153.02" y2="224.984" gradientUnits="userSpaceOnUse">
<stop stop-color="#FFC000"/>
<stop offset="1" stop-color="#FF8A00"/>
</linearGradient>
<linearGradient id="paint7_linear" x1="1165.63" y1="206.223" x2="1161.72" y2="215.855" gradientUnits="userSpaceOnUse">
<stop stop-color="#FFC000"/>
<stop offset="1" stop-color="#FF8A00"/>
</linearGradient>
<linearGradient id="paint8_linear" x1="1161.1" y1="198.556" x2="1150.22" y2="227.407" gradientUnits="userSpaceOnUse">
<stop stop-color="#FFC000"/>
<stop offset="1" stop-color="#FF8A00"/>
</linearGradient>
<linearGradient id="paint9_linear" x1="1117.51" y1="0.846431" x2="1075.44" y2="14.3062" gradientUnits="userSpaceOnUse">
<stop stop-color="#FFC000"/>
<stop offset="1" stop-color="#FF8A00"/>
</linearGradient>
<linearGradient id="paint10_linear" x1="1270.66" y1="131.996" x2="1241.62" y2="140.819" gradientUnits="userSpaceOnUse">
<stop stop-color="#FFC000"/>
<stop offset="1" stop-color="#FF8A00"/>
</linearGradient>
<linearGradient id="paint11_linear" x1="1177.17" y1="106.828" x2="1212.93" y2="141.842" gradientUnits="userSpaceOnUse">
<stop stop-color="#FFC000"/>
<stop offset="1" stop-color="#FF8A00"/>
</linearGradient>
<linearGradient id="paint12_linear" x1="1217.97" y1="29.2353" x2="1195.21" y2="14.7436" gradientUnits="userSpaceOnUse">
<stop stop-color="#FFC000"/>
<stop offset="1" stop-color="#FF8A00"/>
</linearGradient>
<linearGradient id="paint13_linear" x1="1200.15" y1="29.6247" x2="1199.21" y2="28.9775" gradientUnits="userSpaceOnUse">
<stop stop-color="#FFC000"/>
<stop offset="1" stop-color="#FF8A00"/>
</linearGradient>
<linearGradient id="paint14_linear" x1="1213.23" y1="25.6995" x2="1209.71" y2="27.4835" gradientUnits="userSpaceOnUse">
<stop stop-color="#FFC000"/>
<stop offset="1" stop-color="#FF8A00"/>
</linearGradient>
<linearGradient id="paint15_linear" x1="1207.49" y1="21.6931" x2="1203.92" y2="22.8729" gradientUnits="userSpaceOnUse">
<stop stop-color="#FFC000"/>
<stop offset="1" stop-color="#FF8A00"/>
</linearGradient>
<linearGradient id="paint16_linear" x1="1207.79" y1="25.1552" x2="1204.22" y2="26.6763" gradientUnits="userSpaceOnUse">
<stop stop-color="#FFC000"/>
<stop offset="1" stop-color="#FF8A00"/>
</linearGradient>
<linearGradient id="paint17_linear" x1="1203.86" y1="23.3894" x2="1200.3" y2="24.4065" gradientUnits="userSpaceOnUse">
<stop stop-color="#FFC000"/>
<stop offset="1" stop-color="#FF8A00"/>
</linearGradient>
<linearGradient id="paint18_linear" x1="1205.97" y1="29.0925" x2="1202.43" y2="30.7637" gradientUnits="userSpaceOnUse">
<stop stop-color="#FFC000"/>
<stop offset="1" stop-color="#FF8A00"/>
</linearGradient>
<linearGradient id="paint19_linear" x1="1199.03" y1="23.592" x2="1195.71" y2="23.8679" gradientUnits="userSpaceOnUse">
<stop stop-color="#FFC000"/>
<stop offset="1" stop-color="#FF8A00"/>
</linearGradient>
<linearGradient id="paint20_linear" x1="1149.86" y1="54.7737" x2="1131.56" y2="86.4077" gradientUnits="userSpaceOnUse">
<stop stop-color="#FFC000"/>
<stop offset="1" stop-color="#FF8A00"/>
</linearGradient>
<linearGradient id="paint21_linear" x1="1151.41" y1="78.8662" x2="1150.59" y2="80.1694" gradientUnits="userSpaceOnUse">
<stop stop-color="#FFC000"/>
<stop offset="1" stop-color="#FF8A00"/>
</linearGradient>
<linearGradient id="paint22_linear" x1="1143.9" y1="67.519" x2="1138.97" y2="78.1905" gradientUnits="userSpaceOnUse">
<stop stop-color="#FFC000"/>
<stop offset="1" stop-color="#FF8A00"/>
</linearGradient>
<linearGradient id="paint23_linear" x1="1133.56" y1="73.5262" x2="1132.74" y2="74.8294" gradientUnits="userSpaceOnUse">
<stop stop-color="#FFC000"/>
<stop offset="1" stop-color="#FF8A00"/>
</linearGradient>
<linearGradient id="paint24_linear" x1="1139" y1="68.743" x2="1138.17" y2="70.0463" gradientUnits="userSpaceOnUse">
<stop stop-color="#FFC000"/>
<stop offset="1" stop-color="#FF8A00"/>
</linearGradient>
<linearGradient id="paint25_linear" x1="1144.43" y1="63.9593" x2="1143.61" y2="65.2636" gradientUnits="userSpaceOnUse">
<stop stop-color="#FFC000"/>
<stop offset="1" stop-color="#FF8A00"/>
</linearGradient>
<linearGradient id="paint26_linear" x1="1147.91" y1="67.9133" x2="1147.09" y2="69.2176" gradientUnits="userSpaceOnUse">
<stop stop-color="#FFC000"/>
<stop offset="1" stop-color="#FF8A00"/>
</linearGradient>
<linearGradient id="paint27_linear" x1="1151.39" y1="71.8673" x2="1150.57" y2="73.1716" gradientUnits="userSpaceOnUse">
<stop stop-color="#FFC000"/>
<stop offset="1" stop-color="#FF8A00"/>
</linearGradient>
<linearGradient id="paint28_linear" x1="1140.52" y1="81.4348" x2="1139.7" y2="82.738" gradientUnits="userSpaceOnUse">
<stop stop-color="#FFC000"/>
<stop offset="1" stop-color="#FF8A00"/>
</linearGradient>
<linearGradient id="paint29_linear" x1="1137.04" y1="77.4807" x2="1136.22" y2="78.784" gradientUnits="userSpaceOnUse">
<stop stop-color="#FFC000"/>
<stop offset="1" stop-color="#FF8A00"/>
</linearGradient>
<linearGradient id="paint30_linear" x1="1145.96" y1="76.6516" x2="1145.13" y2="77.9548" gradientUnits="userSpaceOnUse">
<stop stop-color="#FFC000"/>
<stop offset="1" stop-color="#FF8A00"/>
</linearGradient>
<linearGradient id="paint31_linear" x1="1291.6" y1="79.7497" x2="1256.79" y2="90.0077" gradientUnits="userSpaceOnUse">
<stop stop-color="#FFC000"/>
<stop offset="1" stop-color="#FF8A00"/>
</linearGradient>
<linearGradient id="paint32_linear" x1="1291.26" y1="250.04" x2="1230.92" y2="273.616" gradientUnits="userSpaceOnUse">
<stop stop-color="#FFC000"/>
<stop offset="1" stop-color="#FF8A00"/>
</linearGradient>
<linearGradient id="paint33_linear" x1="1254.5" y1="32.7794" x2="1273.5" y2="49.7222" gradientUnits="userSpaceOnUse">
<stop stop-color="#FFC000"/>
<stop offset="1" stop-color="#FF8A00"/>
</linearGradient>
<linearGradient id="paint34_linear" x1="982.754" y1="66.8158" x2="965.972" y2="102.28" gradientUnits="userSpaceOnUse">
<stop stop-color="#FFC000"/>
<stop offset="1" stop-color="#FF8A00"/>
</linearGradient>
<linearGradient id="paint35_linear" x1="979.784" y1="77.1598" x2="977.491" y2="81.5622" gradientUnits="userSpaceOnUse">
<stop stop-color="#FFC000"/>
<stop offset="1" stop-color="#FF8A00"/>
</linearGradient>
<linearGradient id="paint36_linear" x1="983.708" y1="73.089" x2="981.415" y2="77.4914" gradientUnits="userSpaceOnUse">
<stop stop-color="#FFC000"/>
<stop offset="1" stop-color="#FF8A00"/>
</linearGradient>
<linearGradient id="paint37_linear" x1="983.856" y1="81.0833" x2="981.563" y2="85.4857" gradientUnits="userSpaceOnUse">
<stop stop-color="#FFC000"/>
<stop offset="1" stop-color="#FF8A00"/>
</linearGradient>
<linearGradient id="paint38_linear" x1="987.779" y1="77.0125" x2="985.485" y2="81.4149" gradientUnits="userSpaceOnUse">
<stop stop-color="#FFC000"/>
<stop offset="1" stop-color="#FF8A00"/>
</linearGradient>
<linearGradient id="paint39_linear" x1="987.928" y1="85.0074" x2="985.634" y2="89.4098" gradientUnits="userSpaceOnUse">
<stop stop-color="#FFC000"/>
<stop offset="1" stop-color="#FF8A00"/>
</linearGradient>
<linearGradient id="paint40_linear" x1="991.852" y1="80.9363" x2="989.558" y2="85.3387" gradientUnits="userSpaceOnUse">
<stop stop-color="#FFC000"/>
<stop offset="1" stop-color="#FF8A00"/>
</linearGradient>
<linearGradient id="paint41_linear" x1="992" y1="88.9316" x2="989.707" y2="93.3339" gradientUnits="userSpaceOnUse">
<stop stop-color="#FFC000"/>
<stop offset="1" stop-color="#FF8A00"/>
</linearGradient>
<linearGradient id="paint42_linear" x1="995.923" y1="84.8604" x2="993.629" y2="89.2628" gradientUnits="userSpaceOnUse">
<stop stop-color="#FFC000"/>
<stop offset="1" stop-color="#FF8A00"/>
</linearGradient>
<clipPath id="clip0">
<rect width="26" height="26" fill="white" transform="translate(1245 131)"/>
</clipPath>
<clipPath id="clip1">
<rect width="42.7584" height="42.7584" fill="white" transform="translate(1196.85 144.179) rotate(-119.18)"/>
</clipPath>
</defs>
</svg>
